{
  "page": 1,
  "total_results": 10000,
  "total_pages": 500,
  "results": [
    {
      "popularity": 240.611,
      "vote_count": 3724,
      "video": false,
      "poster_path": "\/xBHvZcjRiWyobQ9kxBhO6B2dtRI.jpg",
      "id": 419704,
      "adult": false,
      "backdrop_path": "\/5BwqwxMEjeFtdknRV792Svo0K1v.jpg",
      "original_language": "en",
      "original_title": "Ad Astra",
      "genre_ids": [
        18,
        878
      ],
      "title": "Ad Astra",
      "vote_average": 6,
      "overview": "The near future, a time when both hope and hardships drive humanity to look to the stars and beyond. While a mysterious phenomenon menaces to destroy life on planet Earth, astronaut Roy McBride undertakes a mission across the immensity of space and its many perils to uncover the truth about a lost expedition that decades before boldly faced emptiness and silence in search of the unknown.",
      "release_date": "2019-09-17"
    },
    {
      "popularity": 158.609,
      "vote_count": 102,
      "video": false,
      "poster_path": "\/yx4cp1ljJMDSFeEex0Zjv45b55E.jpg",
      "id": 581859,
      "adult": false,
      "backdrop_path": "\/Aq5Zhj9iaTF6BEKNk05dlUxeHKa.jpg",
      "original_language": "en",
      "original_title": "Da 5 Bloods",
      "genre_ids": [
        18,
        10752
      ],
      "title": "Da 5 Bloods",
      "vote_average": 7.1,
      "overview": "Four African-American Vietnam veterans return to Vietnam. They are in search of the remains of their fallen squad leader and the promise of buried treasure. These heroes battle forces of humanity and nature while confronted by the lasting ravages of the immorality of the Vietnam War.",
      "release_date": "2020-06-12"
    },
    {
      "popularity": 156.663,
      "vote_count": 4590,
      "video": false,
      "poster_path": "\/aQvJ5WPzZgYVDrxLX4R6cLJCEaQ.jpg",
      "id": 454626,
      "adult": false,
      "backdrop_path": "\/stmYfCUGd8Iy6kAMBr6AmWqx8Bq.jpg",
      "original_language": "en",
      "original_title": "Sonic the Hedgehog",
      "genre_ids": [
        28,
        35,
        878,
        10751
      ],
      "title": "Sonic the Hedgehog",
      "vote_average": 7.5,
      "overview": "Based on the global blockbuster videogame franchise from Sega, Sonic the Hedgehog tells the story of the world’s speediest hedgehog as he embraces his new home on Earth. In this live-action adventure comedy, Sonic and his new best friend team up to defend the planet from the evil genius Dr. Robotnik and his plans for world domination.",
      "release_date": "2020-02-12"
    },
    {
      "popularity": 195.92,
      "vote_count": 173,
      "video": false,
      "poster_path": "\/mhDdx7o7hhrxrikq8aqPLLnS9w8.jpg",
      "id": 475430,
      "adult": false,
      "backdrop_path": "\/3CIae0GrhKTIzNS3FYYvT8P9D3w.jpg",
      "original_language": "en",
      "original_title": "Artemis Fowl",
      "genre_ids": [
        12,
        14,
        878
      ],
      "title": "Artemis Fowl",
      "vote_average": 5.6,
      "overview": "With the help of his loyal protector Butler, 12-year-old genius Artemis Fowl, descendant of a long line of criminal masterminds, seeks to find his mysteriously disappeared father, and in doing so, uncovers an ancient, underground civilization—the amazingly advanced world of fairies. Deducing that his father’s disappearance is somehow connected to the secretive, reclusive fairy world, cunning Artemis concocts a dangerous plan—so dangerous that he ultimately finds himself in a perilous war of wits with the all-powerful fairies.",
      "release_date": "2020-06-12"
    },
    {
      "popularity": 133.519,
      "vote_count": 7927,
      "video": false,
      "poster_path": "\/7IiTTgloJzvGI1TAYymCfbfl3vT.jpg",
      "id": 496243,
      "adult": false,
      "backdrop_path": "\/ApiBzeaa95TNYliSbQ8pJv4Fje7.jpg",
      "original_language": "ko",
      "original_title": "기생충",
      "genre_ids": [
        35,
        18,
        53
      ],
      "title": "Parasite",
      "vote_average": 8.5,
      "overview": "All unemployed, Ki-taek's family takes peculiar interest in the wealthy and glamorous Parks for their livelihood until they get entangled in an unexpected incident.",
      "release_date": "2019-05-30"
    },
    {
      "popularity": 90.38,
      "vote_count": 140,
      "video": false,
      "poster_path": "\/ygCQnDEqUEIamBpdQdDYnFfxvgM.jpg",
      "id": 339095,
      "adult": false,
      "backdrop_path": "\/t93doi7EzoqLFckidrGGnukFPwd.jpg",
      "original_language": "en",
      "original_title": "The Last Days of American Crime",
      "genre_ids": [
        28,
        80,
        53
      ],
      "title": "The Last Days of American Crime",
      "vote_average": 5.8,
      "overview": "In the not-too-distant future, where as a final response to crime and terrorism, the U.S. government plans to broadcast a signal that will make it impossible for anyone to knowingly break the law.",
      "release_date": "2020-06-05"
    },
    {
      "popularity": 224.626,
      "vote_count": 6,
      "video": false,
      "poster_path": "\/f4Y5auc3FgaBJ0X2kjKIwgCecQZ.jpg",
      "id": 660039,
      "adult": false,
      "backdrop_path": "\/k0b33UJhJWC0TUjJGnQPm4spVaf.jpg",
      "original_language": "ko",
      "original_title": "옆집누나의맛",
      "genre_ids": [
        10749
      ],
      "title": "The Taste of Next Door Sister",
      "vote_average": 3,
      "overview": "Seong-il and Hyun-jung are a couple. Seong-il loves sex. However, Hyun-Jung is fed up with the sex demands of Seong-il who is too obsessive. Hyun-jung talks with her senior about her husband's complaints. Minwoo, who lives next door, comes outside and accidentally listens. Minwoo, who was usually interested in Hyunjeong, pretends to be a coincidence and helps Hyunjung to throw away the trash. Min-woo, who is favored by Hyun-jung, asks sex partner Yoon Kyung to twist her. Disguised as a gas inspector, Yun Kyung visits Seong-il's house and seduces Seong-il to succeed. After that, Sung-il tries to have sex with Hyun-jung, but Seong-il...",
      "release_date": "2019-12-30"
    },
    {
      "popularity": 40.385,
      "vote_count": 1666,
      "video": false,
      "poster_path": "\/voku0sDMzQRwqBcTDq4X8j4sJHD.jpg",
      "id": 11024,
      "adult": false,
      "backdrop_path": "\/hxt1WzpSqMMDVtjafAXAnMIb0o9.jpg",
      "original_language": "en",
      "original_title": "Scooby-Doo 2: Monsters Unleashed",
      "genre_ids": [
        12,
        35,
        14,
        9648
      ],
      "title": "Scooby-Doo 2: Monsters Unleashed",
      "vote_average": 5.8,
      "overview": "When Mystery, Inc. are guests of honor at the grand opening of the Coolsville Museum of Criminology, a masked villain shows up and creates havoc before stealing the costumes of the gang's most notorious villains...Could it be that their nemesis, mad scientist Jonathan Jacobo has returned and is trying to recreate their deadliest foes?",
      "release_date": "2004-03-24"
    },
    {
      "popularity": 85.806,
      "vote_count": 888,
      "video": false,
      "poster_path": "\/wxPhn4ef1EAo5njxwBkAEVrlJJG.jpg",
      "id": 514847,
      "adult": false,
      "backdrop_path": "\/naXUDz0VGK7aaPlEpsuYW8kNVsr.jpg",
      "original_language": "en",
      "original_title": "The Hunt",
      "genre_ids": [
        28,
        27,
        53
      ],
      "title": "The Hunt",
      "vote_average": 6.7,
      "overview": "Twelve strangers wake up in a clearing. They don't know where they are—or how they got there. In the shadow of a dark internet conspiracy theory, ruthless elitists gather at a remote location to hunt humans for sport. But their master plan is about to be derailed when one of the hunted turns the tables on her pursuers.",
      "release_date": "2020-03-11"
    },
    {
      "popularity": 98.497,
      "vote_count": 2415,
      "video": false,
      "poster_path": "\/i8QWXu6dGuTKKerJtnd0A4lUpbv.jpg",
      "id": 290859,
      "adult": false,
      "backdrop_path": "\/a6cDxdwaQIFjSkXf7uskg78ZyTq.jpg",
      "original_language": "en",
      "original_title": "Terminator: Dark Fate",
      "genre_ids": [
        28,
        12,
        878
      ],
      "title": "Terminator: Dark Fate",
      "vote_average": 6.5,
      "overview": "Decades after Sarah Connor prevented Judgment Day, a lethal new Terminator is sent to eliminate the future leader of the resistance. In a fight to save mankind, battle-hardened Sarah Connor teams up with an unexpected ally and an enhanced super soldier to stop the deadliest Terminator yet.",
      "release_date": "2019-10-23"
    },
    {
      "popularity": 89.486,
      "vote_count": 5385,
      "video": false,
      "poster_path": "\/iZf0KyrE25z1sage4SYFLCCrMi9.jpg",
      "id": 530915,
      "adult": false,
      "backdrop_path": "\/cqa3sa4c4jevgnEJwq3CMF8UfTG.jpg",
      "original_language": "en",
      "original_title": "1917",
      "genre_ids": [
        28,
        18,
        36,
        10752
      ],
      "title": "1917",
      "vote_average": 7.9,
      "overview": "At the height of the First World War, two young British soldiers must cross enemy territory and deliver a message that will stop a deadly attack on hundreds of soldiers.",
      "release_date": "2019-12-25"
    },
    {
      "popularity": 87.361,
      "vote_count": 2202,
      "video": false,
      "poster_path": "\/f4aul3FyD3jv3v4bul1IrkWZvzq.jpg",
      "id": 508439,
      "adult": false,
      "backdrop_path": "\/xFxk4vnirOtUxpOEWgA1MCRfy6J.jpg",
      "original_language": "en",
      "original_title": "Onward",
      "genre_ids": [
        12,
        16,
        35,
        14,
        10751
      ],
      "title": "Onward",
      "vote_average": 7.9,
      "overview": "In a suburban fantasy world, two teenage elf brothers embark on an extraordinary quest to discover if there is still a little magic left out there.",
      "release_date": "2020-02-29"
    },
    {
      "popularity": 100.239,
      "vote_count": 1223,
      "video": false,
      "poster_path": "\/ibaDBJBAvWd4J5lzfbpq1PJ6ZU1.jpg",
      "id": 664413,
      "adult": false,
      "backdrop_path": "\/27nn2YJBwY7a1etZ0AiIcOrIgu3.jpg",
      "original_language": "pl",
      "original_title": "365 dni",
      "genre_ids": [
        18,
        10749
      ],
      "title": "365 Days",
      "vote_average": 7.2,
      "overview": "Laura, in order to save her relationship from falling apart, goes to Sicily, where she meets Massimo. A dangerous man, the head of a mafia family, kidnaps her and gives her 365 days to fall in love with him.",
      "release_date": "2020-02-07"
    },
    {
      "popularity": 79.126,
      "vote_count": 1735,
      "video": false,
      "poster_path": "\/fapXd3v9qTcNBTm39ZC4KUVQDNf.jpg",
      "id": 423204,
      "adult": false,
      "backdrop_path": "\/k2WyDw2NTUIWnuEs5gT7wgrCQg6.jpg",
      "original_language": "en",
      "original_title": "Angel Has Fallen",
      "genre_ids": [
        28,
        53
      ],
      "title": "Angel Has Fallen",
      "vote_average": 6.3,
      "overview": "After a treacherous attack, Secret Service agent Mike Banning is charged with attempting to assassinate President Trumbull. Chased by his own colleagues and the FBI, Banning begins a race against the clock to clear his name.",
      "release_date": "2019-08-21"
    },
    {
      "popularity": 77.979,
      "vote_count": 1778,
      "video": false,
      "poster_path": "\/p69QzIBbN06aTYqRRiCOY1emNBh.jpg",
      "id": 501170,
      "adult": false,
      "backdrop_path": "\/sZAXOoOMyCbBskmqR0f4LShxXtw.jpg",
      "original_language": "en",
      "original_title": "Doctor Sleep",
      "genre_ids": [
        18,
        14,
        27,
        53
      ],
      "title": "Doctor Sleep",
      "vote_average": 7.1,
      "overview": "Still irrevocably scarred by the trauma he endured as a child at the Overlook, Dan Torrance has fought to find some semblance of peace. But that peace is shattered when he encounters Abra, a courageous teenager with her own powerful extrasensory gift, known as the 'shine'. Instinctively recognising that Dan shares her power, Abra has sought him out, desperate for his help against the merciless Rose the Hat and her followers.",
      "release_date": "2019-10-30"
    },
    {
      "popularity": 83.792,
      "vote_count": 6,
      "video": false,
      "poster_path": "\/q2lkJf1TAjImTHCEO7XvbqPtnPb.jpg",
      "id": 703134,
      "adult": false,
      "backdrop_path": "\/j57oUw8LIYvjOl0zs3A1A1UqwKH.jpg",
      "original_language": "en",
      "original_title": "Infamous",
      "genre_ids": [
        80,
        18,
        53
      ],
      "title": "Infamous",
      "vote_average": 5.5,
      "overview": "Two young lovers rob their way across the southland, posting their exploits to social media, and gaining fame and followers as a result.",
      "release_date": "2020-06-12"
    },
    {
      "popularity": 82.137,
      "vote_count": 13,
      "video": false,
      "poster_path": "\/20TZbCFTCyfTwkDJ3F060elYaKX.jpg",
      "id": 702936,
      "adult": false,
      "backdrop_path": "\/3i2xnGLUAteDpSke5C9w2fhYmfL.jpg",
      "original_language": "en",
      "original_title": "Sniper: Assassin's End",
      "genre_ids": [
        28
      ],
      "title": "Sniper: Assassin's End",
      "vote_average": 5.2,
      "overview": "Special Ops sniper Brandon Beckett is set up as the primary suspect for the murder of a foreign dignitary on the eve of signing a high-profile trade agreement with the United States. Narrowly escaping death, Beckett realizes that there may be a dark operative working within the government, and partners with the only person whom he can trust: his father, legendary sniper Sgt. Thomas Beckett. Both Becketts are on the run from the CIA, Russian mercenaries and Lady Death, a Yakuza-trained assassin with sniper skills that rival both legendary sharpshooters.",
      "release_date": "2020-06-15"
    },
    {
      "popularity": 79.193,
      "genre_ids": [
        18,
        53
      ],
      "video": false,
      "vote_count": 16,
      "original_language": "en",
      "adult": false,
      "title": "Daddy's Girl",
      "original_title": "Daddy's Girl",
      "backdrop_path": "\/eS7K5nQwLqY94Gma1r9L6G84oNw.jpg",
      "id": 310583,
      "vote_average": 3.5,
      "overview": "A twisted suspense thriller about a manipulative teenage girl who convinces her widower\/alcoholic\/over protective father that the boy she asked out on a date beat and raped her, when in fact he turned down her advances. But no amount of facts can persuade this enraged father. No one hurts Daddy's Girl.",
      "poster_path": "\/5ud97JNxaWXQGqaOv7eddvCNra0.jpg"
    },
    {
      "popularity": 64.7,
      "vote_count": 0,
      "video": false,
      "poster_path": "\/shx7pGYQ9s4t7WFe19eES2WOrMS.jpg",
      "id": 610201,
      "adult": false,
      "backdrop_path": "\/lvtEcdBmmrxzAQvRIYyDRQDeDJM.jpg",
      "original_language": "es",
      "original_title": "The Pale Door",
      "genre_ids": [
        27,
        37
      ],
      "title": "The Pale Door",
      "vote_average": 0,
      "overview": "After a stagecoach robbery goes bad, two brothers leading a gang of cowboys must survive the night in a ghost town inhabited by a coven of witches.",
      "release_date": "2020-08-31"
    },
    {
      "popularity": 80.108,
      "vote_count": 2599,
      "video": false,
      "poster_path": "\/8WUVHemHFH2ZIP6NWkwlHWsyrEL.jpg",
      "id": 338762,
      "adult": false,
      "backdrop_path": "\/ocUrMYbdjknu2TwzMHKT9PBBQRw.jpg",
      "original_language": "en",
      "original_title": "Bloodshot",
      "genre_ids": [
        28,
        878
      ],
      "title": "Bloodshot",
      "vote_average": 7,
      "overview": "After he and his wife are murdered, marine Ray Garrison is resurrected by a team of scientists. Enhanced with nanotechnology, he becomes a superhuman, biotech killing machine—'Bloodshot'. As Ray first trains with fellow super-soldiers, he cannot recall anything from his former life. But when his memories flood back and he remembers the man that killed both him and his wife, he breaks out of the facility to get revenge, only to discover that there's more to the conspiracy than he thought.",
      "release_date": "2020-03-05"
    }
  ]
}